<?xml version="1.0" encoding="UTF-8"?>
<svg width="98px" height="98px" viewBox="0 0 98 98" version="1.1" xmlns="http://www.w3.org/2000/svg" xmlns:xlink="http://www.w3.org/1999/xlink">
    <!-- Generator: Sketch 53.2 (72643) - https://sketchapp.com -->
    <title>logo</title>
    <desc>Created with Sketch.</desc>
    <g id="Page-1" stroke="none" stroke-width="1" fill="none" fill-rule="evenodd">
        <g id="Desktop" transform="translate(-457.000000, -328.000000)">
            <g id="logo" transform="translate(458.000000, 329.000000)">
                <g id="b9a3c50f2f5716693fe51197da70cfcb" transform="translate(6.000000, 9.000000)" fill="#0F2A4C" fill-rule="nonzero">
                    <path d="M12.7697412,41 C12.3136664,40.9728357 11.9496434,40.5517889 11.9496434,40.035667 C11.9496434,39.5014355 12.3387714,39.0713339 12.8157671,39.0713339 L19.5857578,39.0713339 L19.5857578,31.6011484 C19.5857578,31.5875663 19.5857578,31.5604019 19.5857578,31.5422924 L19.5857578,30.8450751 L19.0376312,30.7409452 C17.0585177,30.4059187 15.1798244,29.3736749 13.4559454,27.6759055 C12.0835369,26.3222173 10.8450219,24.5837014 9.77805801,22.4965769 L9.74040046,22.4196113 L9.66508536,22.4467756 C9.58140192,22.4784673 9.4935343,22.4965769 9.40985085,22.4965769 C9.35127244,22.4965769 9.2968782,22.4875221 9.24666814,22.4739399 C2.4348357,21.0568684 -0.293244611,13.3105124 0.024752481,6.2523189 C0.024752481,5.71356007 0.413880501,5.28345848 0.890876138,5.28345848 L5.86585695,5.28345848 L5.85748861,4.99370583 C5.85330443,4.72206272 5.84912026,4.45041961 5.84912026,4.18330389 C5.84912026,3.18727915 5.88677781,2.1369258 5.97046126,0.891894876 C6.00393464,0.393882509 6.38469431,0 6.83240074,0 L34.0755463,0 C34.5232527,0 34.9040124,0.393882509 34.9374858,0.891894876 C35.0169851,2.08259717 35.0588268,3.16011484 35.0588268,4.18330389 C35.0588268,4.50927562 35.0546426,4.83977473 35.0462743,5.17480124 L35.0462743,5.28345848 L40.1133069,5.28345848 C40.5903025,5.28345848 40.9752464,5.71808746 40.9752464,6.24779152 C41.2932435,13.305985 38.5651631,21.0568684 31.761699,22.4694125 C31.7073048,22.4875221 31.6529106,22.4920495 31.5985163,22.4920495 C31.493912,22.4920495 31.3767552,22.4648852 31.2679667,22.4105565 L31.1884675,22.3743375 L31.1466257,22.4603578 C30.0712935,24.5655919 28.8285943,26.3176899 27.4478175,27.6804329 C25.7239385,29.3782023 23.8452451,30.4059187 21.8661317,30.7409452 L21.3138209,30.8405477 L21.3138209,31.5060733 C21.3138209,31.5604019 21.3096368,31.5875663 21.3138209,31.619258 L21.3138209,39.0668065 L28.0838116,39.0668065 C28.5608073,39.0668065 28.9499353,39.5014355 28.9499353,40.0311396 C28.9499353,40.5608436 28.5608073,40.9954726 28.0838116,40.9954726 L12.7697412,41 L12.7697412,41 Z M7.61065678,2.63041078 C7.58973592,3.14653269 7.5771834,3.65359982 7.5771834,4.18330389 C7.5771834,7.42038428 7.91191719,10.5895539 8.5730164,13.6047924 C9.21319476,16.5204284 10.1253443,19.1553666 11.2885442,21.4371687 C12.4601124,23.7461352 13.8283368,25.5706714 15.3513755,26.8655035 C16.9748343,28.2418286 18.6903449,28.9390459 20.4560656,28.9390459 C22.2217863,28.9390459 23.9372969,28.2418286 25.5607558,26.8655035 C27.0796103,25.5706714 28.4478346,23.7461352 29.623587,21.4371687 C30.7867869,19.1508392 31.6947523,16.5159011 32.3391148,13.6047924 C33.000214,10.5895539 33.3349478,7.42038428 33.3349478,4.18330389 C33.3349478,3.68529152 33.3265795,3.18275177 33.3056586,2.63493816 L33.2805536,1.93319346 L7.63994599,1.93319346 L7.61065678,2.63041078 L7.61065678,2.63041078 Z M34.9291174,7.67844523 L34.8998282,8.07232774 C34.8077765,9.20417403 34.6780671,10.3314929 34.5107002,11.4225928 C34.4897794,11.5448322 34.4186484,11.9839885 34.4186484,11.9839885 C33.9332845,14.9358436 33.1717651,17.7111307 32.1591954,20.2374117 L32.0796961,20.4366166 L32.2721681,20.382288 C35.6990051,19.4179549 39.339235,14.9222615 39.2220782,7.31625442 L39.2220782,7.21212456 L34.9625908,7.21212456 L34.9291174,7.67844523 L34.9291174,7.67844523 Z M1.77792066,7.31625442 C1.66494801,14.8317138 5.2549678,19.3455168 8.63996316,20.3596511 L8.83661925,20.4185071 L8.75711998,20.2193021 C7.22989711,16.4162986 6.29264252,12.0745362 5.97046126,7.31625442 L5.96627709,7.21665194 L1.78210483,7.21665194 L1.77792066,7.31625442 L1.77792066,7.31625442 Z" id="Shape"></path>
                </g>
                <rect id="Rectangle" stroke="#0F2A4C" stroke-width="2" x="0.5" y="0.5" width="95" height="95" rx="8"></rect>
                <path d="M23.3383698,72.9665945 L68.9432636,27.3617007" id="Line-2" stroke="#0F2A4C" stroke-width="2" fill="#0F2A4C" fill-rule="nonzero" stroke-linecap="square"></path>
                <g id="46ae48f76234d0f8416518e241c5db99" transform="translate(49.000000, 50.000000)" fill="#0F2A4C" fill-rule="nonzero">
                    <g id="Group" transform="translate(20.500000, 20.500000) scale(-1, 1) rotate(-180.000000) translate(-20.500000, -20.500000) translate(0.000000, -0.000000)">
                        <path d="M19.9515204,40.8142661 C19.2917551,40.4488596 19.2917551,40.4583844 19.2917551,35.8899366 C19.2917551,32.1098838 19.3009592,31.7734847 19.459102,31.4751848 C19.6448571,31.1097782 20.1376939,30.7924287 20.5,30.7924287 C20.8623061,30.7924287 21.3551429,31.1097782 21.540898,31.4751848 C21.6986224,31.7734847 21.7082449,32.1098838 21.7082449,35.8899366 C21.7082449,39.6699894 21.6990408,40.0063886 21.540898,40.3046885 C21.3551429,40.670095 20.8623061,40.9874446 20.5,40.9874446 C20.3698878,40.9870116 20.1188673,40.9103801 19.9515204,40.8142661 Z" id="Path"></path>
                        <path d="M8.97523469,28.6567054 C7.51596939,27.791246 5.64795918,26.6755438 4.81122449,26.1750581 C3.98411224,25.6750053 3.2402551,25.1649947 3.157,25.0403062 C3.06412245,24.8866103 2.47840816,21.5295459 1.4747449,15.3163358 C0.154795918,7.14101373 -0.0405816327,5.74606125 0.0062755102,5.21700106 C0.2665,2.65872228 1.64209184,0.811774023 3.76112245,0.167550158 C4.41168367,-0.0246779303 5.78727551,-0.0346356917 6.51230612,0.158025343 C7.7297551,0.475374868 8.13891837,0.783199578 13.3902653,5.31354805 C16.2435306,7.78523759 18.4834694,9.77635692 18.5763469,9.94953537 C18.7809286,10.3344245 18.7809286,10.6612988 18.5671429,11.0652376 C18.2885102,11.6038226 17.6563571,11.8635903 17.1359082,11.6614044 C17.015,11.6133474 14.7194184,9.68024287 12.0427041,7.36224921 C8.80830612,4.56325238 6.96790816,3.0436114 6.58677551,2.83190074 C5.25762245,2.12966209 3.86362245,2.39895459 3.0365102,3.52461457 C2.71102041,3.95756072 2.3767449,4.95766631 2.3767449,5.4867265 C2.3767449,5.67895459 3.00889796,9.79583949 3.78036735,14.6335797 C4.82042857,21.0970327 5.22959184,23.4726082 5.34087755,23.5877719 C5.42455102,23.6743611 6.9302551,24.5978353 8.68697959,25.6459979 L11.8841429,27.550528 L12.5439082,27.2136959 C12.9062143,27.0214678 14.7558163,26.0404118 16.6426531,25.0208237 C18.5386939,24.0107603 20.220949,23.1548258 20.3975,23.1258184 C20.6669286,23.0777614 21.2618469,23.3565787 25.0539286,25.3091658 L29.3944898,27.550528 L32.5452143,25.5979409 C34.2739082,24.5207709 35.7147653,23.6263041 35.7331735,23.6068215 C35.8076429,23.5492397 38.6236735,5.92876452 38.6236735,5.53435058 C38.6236735,4.63035903 38.1032245,3.50469905 37.4338367,2.96611404 C36.9598265,2.58122492 36.2067653,2.37947202 35.5654082,2.45653643 C34.4964796,2.58165787 34.2362551,2.78341077 29.1246429,7.35229145 C23.8825,12.026811 23.9569694,11.9687962 23.2972041,11.5938648 C22.6186122,11.2089757 22.3864184,10.4205808 22.7859592,9.85298838 C22.9533061,9.62222809 24.9330204,7.83329461 31.5135204,1.96600845 C33.1585408,0.494424498 34.2274694,0.00389651531 35.8076429,0.00389651531 C38.6332959,-0.00562829989 40.6778571,2.04307286 40.9937245,5.21700106 C41.0401633,5.74606125 40.8452041,7.14058078 39.5252551,15.3159029 C38.6797347,20.5294403 37.9358776,24.8961352 37.8710306,25.0112988 C37.6852755,25.3191235 29.9245612,30.1282893 29.515398,30.1858712 C29.2271429,30.2244034 28.6138163,29.9356283 24.887,28.0120486 C22.5261531,26.7907075 20.5464388,25.7906019 20.4907959,25.7906019 C20.4351531,25.7906019 18.5575204,26.7716579 16.3267857,27.9644245 C14.096051,29.1667159 12.1255408,30.1668215 11.9489898,30.1863041 C11.6611531,30.2244034 11.308051,30.0417001 8.97523469,28.6567054 Z" id="Path"></path>
                        <path d="M28.818398,22.6742555 C27.8795816,22.2512672 27.6565918,20.9623865 28.3908265,20.202566 C28.994949,19.5773918 29.8500918,19.5773918 30.4542143,20.202566 C31.6068163,21.3948997 30.314898,23.3474868 28.818398,22.6742555 Z" id="Path"></path>
                        <path d="M11.029,22.3473812 C10.4993469,22.0590391 10.3692347,21.6741499 10.3692347,20.4813833 L10.3692347,19.4427455 L9.36557143,19.4427455 C8.21296939,19.4427455 7.84145918,19.3080993 7.56240816,18.7599894 C7.34862245,18.3465259 7.34862245,18.0387012 7.56240816,17.6248046 C7.84145918,17.0766948 8.21296939,16.9420486 9.36557143,16.9420486 L10.3692347,16.9420486 L10.3692347,15.9034108 C10.3692347,15.0860084 10.4064694,14.8067582 10.5365816,14.5469905 C10.7223367,14.1815839 11.2151735,13.8642344 11.5774796,13.8642344 C11.9397857,13.8642344 12.4326224,14.1815839 12.6183776,14.5469905 C12.7484898,14.8067582 12.7857245,15.0855755 12.7857245,15.9034108 L12.7857245,16.9420486 L13.7893878,16.9420486 C14.9419898,16.9420486 15.3135,17.0766948 15.592551,17.6248046 C15.8063367,18.0382682 15.8063367,18.3460929 15.592551,18.7599894 C15.3135,19.3080993 14.9419898,19.4427455 13.7893878,19.4427455 L12.7857245,19.4427455 L12.7857245,20.4813833 C12.7857245,21.2987856 12.7484898,21.5780359 12.6183776,21.8373706 C12.4326224,22.2027772 11.9397857,22.5201267 11.5774796,22.5201267 C11.4473673,22.5201267 11.1963469,22.4434952 11.029,22.3473812 Z" id="Path"></path>
                        <path d="M25.8442245,19.5964414 C24.9054082,19.173453 24.6824184,17.8845723 25.4166531,17.1247518 C26.0207755,16.4995776 26.8759184,16.4995776 27.4800408,17.1247518 C28.6326429,18.3170855 27.3407245,20.2696727 25.8442245,19.5964414 Z" id="Path"></path>
                        <path d="M31.7925714,19.5964414 C30.8537551,19.173453 30.6307653,17.8845723 31.365,17.1247518 C31.9691224,16.4995776 32.8242653,16.4995776 33.4283878,17.1247518 C34.5809898,18.3170855 33.2890714,20.2696727 31.7925714,19.5964414 Z" id="Path"></path>
                        <path d="M28.818398,16.5186272 C27.8795816,16.0956389 27.6565918,14.8067582 28.3908265,14.0469377 C28.994949,13.4217635 29.8500918,13.4217635 30.4542143,14.0469377 C31.6068163,15.2392714 30.314898,17.1918585 28.818398,16.5186272 Z" id="Path"></path>
                    </g>
                </g>
            </g>
        </g>
    </g>
</svg>