<svg width="1002pt" height="211pt" xmlns="http://www.w3.org/2000/svg" xmlns:xlink="http://www.w3.org/1999/xlink" xmlns:ev="http://www.w3.org/2001/xml-events" style="overflow: hidden; "><g id="viewport-20190915100700430" class="svg-pan-zoom_viewport" transform="matrix(1.0578842315369261,0,0,1.0578842315369261,0,13.393213572854293)" style="transform: matrix(1.05788, 0, 0, 1.05788, 0, 13.3932);">
<g id="graph0" class="graph" transform="scale(1 1) rotate(0) translate(4 207)">
<title>dependencies</title>
<polygon fill="#ffffff" stroke="transparent" points="-4,4 -4,-207 998,-207 998,4 -4,4"></polygon>
<text text-anchor="start" x="476.0091" y="-42.4" font-family="sans-serif" font-weight="bold" font-size="14.00" fill="#000000">Legend</text>
<polygon fill="#ffffb3" stroke="transparent" points="263,-10 263,-30 283,-30 283,-10 263,-10"></polygon>
<text text-anchor="start" x="286.629" y="-15.4" font-family="sans-serif" font-size="14.00" fill="#000000"> &nbsp;Declarations</text>
<polygon fill="#8dd3c7" stroke="transparent" points="376,-10 376,-30 396,-30 396,-10 376,-10"></polygon>
<text text-anchor="start" x="399.7251" y="-15.4" font-family="sans-serif" font-size="14.00" fill="#000000"> &nbsp;Module</text>
<polygon fill="#80b1d3" stroke="transparent" points="462,-10 462,-30 482,-30 482,-10 462,-10"></polygon>
<text text-anchor="start" x="485.7812" y="-15.4" font-family="sans-serif" font-size="14.00" fill="#000000"> &nbsp;Bootstrap</text>
<polygon fill="#fdb462" stroke="transparent" points="559,-10 559,-30 579,-30 579,-10 559,-10"></polygon>
<text text-anchor="start" x="582.6732" y="-15.4" font-family="sans-serif" font-size="14.00" fill="#000000"> &nbsp;Providers</text>
<polygon fill="#fb8072" stroke="transparent" points="655,-10 655,-30 675,-30 675,-10 655,-10"></polygon>
<text text-anchor="start" x="678.7258" y="-15.4" font-family="sans-serif" font-size="14.00" fill="#000000"> &nbsp;Exports</text>
<g id="clust1" class="cluster">
<title>cluster_AppModule</title>
<polygon fill="none" stroke="#000000" stroke-dasharray="1,5" points="8,-70 8,-195 986,-195 986,-70 8,-70"></polygon>
</g>
<g id="clust3" class="cluster">
<title>cluster_AppModule_imports</title>
<polygon fill="none" stroke="#000000" points="154,-78 154,-130 978,-130 978,-78 154,-78"></polygon>
</g>
<g id="clust6" class="cluster">
<title>cluster_AppModule_providers</title>
<polygon fill="none" stroke="#000000" points="16,-78 16,-130 146,-130 146,-78 16,-78"></polygon>
</g>
<!-- AuthModule -->
<g id="node1" class="node">
<title>AuthModule</title>
<polygon fill="#8dd3c7" stroke="#000000" points="969.5482,-122 966.5482,-126 945.5482,-126 942.5482,-122 882.4518,-122 882.4518,-86 969.5482,-86 969.5482,-122"></polygon>
<text text-anchor="middle" x="926" y="-99.8" font-family="Times,serif" font-size="14.00" fill="#000000">AuthModule</text>
</g>
<!-- AppModule -->
<g id="node8" class="node">
<title>AppModule</title>
<polygon fill="#8dd3c7" stroke="#000000" points="620.6571,-187 617.6571,-191 596.6571,-191 593.6571,-187 537.3429,-187 537.3429,-151 620.6571,-151 620.6571,-187"></polygon>
<text text-anchor="middle" x="579" y="-164.8" font-family="Times,serif" font-size="14.00" fill="#000000">AppModule</text>
</g>
<!-- AuthModule&#45;&gt;AppModule -->
<g id="edge1" class="edge">
<title>AuthModule-&gt;AppModule</title>
<path fill="none" stroke="#000000" d="M926,-122.0109C926,-144.4852 926,-180 926,-180 926,-180 630.8563,-180 630.8563,-180"></path>
<polygon fill="#000000" stroke="#000000" points="630.8563,-176.5001 620.8563,-180 630.8563,-183.5001 630.8563,-176.5001"></polygon>
</g>
<!-- GatewayModule -->
<g id="node2" class="node">
<title>GatewayModule</title>
<polygon fill="#8dd3c7" stroke="#000000" points="864.7978,-122 861.7978,-126 840.7978,-126 837.7978,-122 755.2022,-122 755.2022,-86 864.7978,-86 864.7978,-122"></polygon>
<text text-anchor="middle" x="810" y="-99.8" font-family="Times,serif" font-size="14.00" fill="#000000">GatewayModule</text>
</g>
<!-- GatewayModule&#45;&gt;AppModule -->
<g id="edge2" class="edge">
<title>GatewayModule-&gt;AppModule</title>
<path fill="none" stroke="#000000" d="M810,-122.1289C810,-142.5724 810,-173 810,-173 810,-173 630.8324,-173 630.8324,-173"></path>
<polygon fill="#000000" stroke="#000000" points="630.8324,-169.5001 620.8324,-173 630.8323,-176.5001 630.8324,-169.5001"></polygon>
</g>
<!-- JudgeModule -->
<g id="node3" class="node">
<title>JudgeModule</title>
<polygon fill="#8dd3c7" stroke="#000000" points="737.2092,-122 734.2092,-126 713.2092,-126 710.2092,-122 644.7908,-122 644.7908,-86 737.2092,-86 737.2092,-122"></polygon>
<text text-anchor="middle" x="691" y="-99.8" font-family="Times,serif" font-size="14.00" fill="#000000">JudgeModule</text>
</g>
<!-- JudgeModule&#45;&gt;AppModule -->
<g id="edge3" class="edge">
<title>JudgeModule-&gt;AppModule</title>
<path fill="none" stroke="#000000" d="M675.6318,-122.0091C675.6318,-138.0494 675.6318,-159 675.6318,-159 675.6318,-159 630.8221,-159 630.8221,-159"></path>
<polygon fill="#000000" stroke="#000000" points="630.8221,-155.5001 620.8221,-159 630.8221,-162.5001 630.8221,-155.5001"></polygon>
</g>
<!-- JudgeModule&#45;&gt;AppModule -->
<g id="edge4" class="edge">
<title>JudgeModule-&gt;AppModule</title>
<path fill="none" stroke="#000000" d="M706.3682,-122.2667C706.3682,-140.5552 706.3682,-166 706.3682,-166 706.3682,-166 630.7051,-166 630.7051,-166"></path>
<polygon fill="#000000" stroke="#000000" points="630.7051,-162.5001 620.7051,-166 630.7051,-169.5001 630.7051,-162.5001"></polygon>
</g>
<!-- MatchModule -->
<g id="node4" class="node">
<title>MatchModule</title>
<polygon fill="#8dd3c7" stroke="#000000" points="626.8147,-122 623.8147,-126 602.8147,-126 599.8147,-122 531.1853,-122 531.1853,-86 626.8147,-86 626.8147,-122"></polygon>
<text text-anchor="middle" x="579" y="-99.8" font-family="Times,serif" font-size="14.00" fill="#000000">MatchModule</text>
</g>
<!-- MatchModule&#45;&gt;AppModule -->
<g id="edge5" class="edge">
<title>MatchModule-&gt;AppModule</title>
<path fill="none" stroke="#000000" d="M579,-122.1061C579,-122.1061 579,-140.991 579,-140.991"></path>
<polygon fill="#000000" stroke="#000000" points="575.5001,-140.9909 579,-150.991 582.5001,-140.991 575.5001,-140.9909"></polygon>
</g>
<!-- PlayerModule -->
<g id="node5" class="node">
<title>PlayerModule</title>
<polygon fill="#8dd3c7" stroke="#000000" points="513.8133,-122 510.8133,-126 489.8133,-126 486.8133,-122 418.1867,-122 418.1867,-86 513.8133,-86 513.8133,-122"></polygon>
<text text-anchor="middle" x="466" y="-99.8" font-family="Times,serif" font-size="14.00" fill="#000000">PlayerModule</text>
</g>
<!-- PlayerModule&#45;&gt;AppModule -->
<g id="edge6" class="edge">
<title>PlayerModule-&gt;AppModule</title>
<path fill="none" stroke="#000000" d="M466,-122.0091C466,-138.0494 466,-159 466,-159 466,-159 527.244,-159 527.244,-159"></path>
<polygon fill="#000000" stroke="#000000" points="527.2441,-162.5001 537.244,-159 527.244,-155.5001 527.2441,-162.5001"></polygon>
</g>
<!-- TournamentModule -->
<g id="node6" class="node">
<title>TournamentModule</title>
<polygon fill="#8dd3c7" stroke="#000000" points="399.9734,-122 396.9734,-126 375.9734,-126 372.9734,-122 272.0266,-122 272.0266,-86 399.9734,-86 399.9734,-122"></polygon>
<text text-anchor="middle" x="336" y="-99.8" font-family="Times,serif" font-size="14.00" fill="#000000">TournamentModule</text>
</g>
<!-- TournamentModule&#45;&gt;AppModule -->
<g id="edge7" class="edge">
<title>TournamentModule-&gt;AppModule</title>
<path fill="none" stroke="#000000" d="M336,-122.2667C336,-140.5552 336,-166 336,-166 336,-166 527.2268,-166 527.2268,-166"></path>
<polygon fill="#000000" stroke="#000000" points="527.2268,-169.5001 537.2268,-166 527.2268,-162.5001 527.2268,-169.5001"></polygon>
</g>
<!-- UsersModule -->
<g id="node7" class="node">
<title>UsersModule</title>
<polygon fill="#8dd3c7" stroke="#000000" points="253.9218,-122 250.9218,-126 229.9218,-126 226.9218,-122 162.0782,-122 162.0782,-86 253.9218,-86 253.9218,-122"></polygon>
<text text-anchor="middle" x="208" y="-99.8" font-family="Times,serif" font-size="14.00" fill="#000000">UsersModule</text>
</g>
<!-- UsersModule&#45;&gt;AppModule -->
<g id="edge8" class="edge">
<title>UsersModule-&gt;AppModule</title>
<path fill="none" stroke="#000000" d="M208,-122.1289C208,-142.5724 208,-173 208,-173 208,-173 527.1628,-173 527.1628,-173"></path>
<polygon fill="#000000" stroke="#000000" points="527.1628,-176.5001 537.1628,-173 527.1627,-169.5001 527.1628,-176.5001"></polygon>
</g>
<!-- AppService -->
<g id="node9" class="node">
<title>AppService</title>
<ellipse fill="#fdb462" stroke="#000000" cx="81" cy="-104" rx="56.7406" ry="18"></ellipse>
<text text-anchor="middle" x="81" y="-99.8" font-family="Times,serif" font-size="14.00" fill="#000000">AppService</text>
</g>
<!-- AppService&#45;&gt;AppModule -->
<g id="edge9" class="edge">
<title>AppService-&gt;AppModule</title>
<path fill="none" stroke="#000000" d="M81,-122.0109C81,-144.4852 81,-180 81,-180 81,-180 526.97,-180 526.97,-180"></path>
<polygon fill="#000000" stroke="#000000" points="526.97,-183.5001 536.97,-180 526.97,-176.5001 526.97,-183.5001"></polygon>
</g>
</g>
</g></svg>